{
    "name" : "jajajaja",
    "stats":{
      "medals_bronze":1328.0,
      "environmental_kills_most_in_game":4.0,
      "environmental_kills":91.0,
      "kill_streak_best":39.0,
      "solo_kills_most_in_game":25.0,
      "medals_silver":1685.0,
      "eliminations_most_in_game":39.0,
      "all_damage_done":7976710.0,
      "damage_done":4316111.0,
      "solo_kills":2307.0,
      "turrets_destroyed":811.0,
      "defensive_assists":3784.0,
      "final_blows":8712.0,
      "teleporter_pads_destroyed_most_in_game":2.0,
      "objective_time":22.175555555555555,
      "multikill_best":5.0,
      "eliminations":19091.0,
      "healing_done_most_in_game":17438.0,
      "time_played":215.76055555555556,
      "medals":4672.0,
      "objective_kills":7590.0,
      "objective_kills_most_in_game":29.0,
      "melee_final_blows_most_in_game":4.0,
      "melee_final_blows":352.0,
      "hero_damage_done_most_in_game":12829.0,
      "objective_time_most_in_game":0.0875,
      "defensive_assists_most_in_game":35.0,
      "hero_damage_done":4316111.0,
      "medals_gold":1658.0,
      "games_won":836.0,
      "kpd":1.7,
      "healing_done":2692539.0,
      "time_spent_on_fire":11.086388888888889,
      "barrier_damage_done":1564751.0,
      "final_blows_most_in_game":25.0,
      "recon_assists":21.0,
      "recon_assists_most_in_game":12.0,
      "deaths":11207.0,
      "multikills":123.0,
      "turrets_destroyed_most_in_game":18.0,
      "barrier_damage_done_most_in_game":13310.0,
      "teleporter_pads_destroyed":18.0,
      "offensive_assists":2763.0,
      "all_damage_done_most_in_game":18777.0,
      "offensive_assists_most_in_game":22.0,
      "cards":558.0,
      "time_spent_on_fire_most_in_game":0.15416666666666667
    },
    "average_stats":{

    },
    "overall_stats":{
      "endorsement_sportsmanship":"0.25",
      "prestige_image":" https://d15f34w2p8l1cc.cloudfront.net/overwatch/d35d380b7594b8f6af2d01040d80a5bfb6621553406c0905d4764bdc92a4ede8.png ",
      "endorsement_level":3,
      "tier_image":"https://d1u1mce87gyfbn.cloudfront.net/game/rank-icons/rank-GoldTier.png",
      "losses":0,
      "avatar":"https://d15f34w2p8l1cc.cloudfront.net/overwatch/a99a432f2bb770e53a42d7aea01000064a11a6265f91cbfb4a560cbfd47539f8.png",
      "prestige":5,
      "comprank":2450,
      "level":70,
      "rank_image":" https://d15f34w2p8l1cc.cloudfront.net/overwatch/e8b7df4b88998380658d49d00e7bc483c740432ac417218e94fab4137bec4ae0.png ",
      "win_rate":0,
      "games":0,
      "tier":"gold",
      "wins":0,
      "endorsement_shotcaller":"0.2",
      "endorsement_teammate":"0.55"
    },
    "competitive":false,
    "rolling_average_stats":{
      "solo_kills":1.78,
      "time_spent_on_fire":0.008611111111111113,
      "objective_time":0.017222222222222226,
      "objective_kills":5.86,
      "final_blows":6.73,
      "healing_done":2080.0,
      "deaths":8.66,
      "eliminations":14.75,
      "hero_damage_done":4372.0,
      "all_damage_done":6162.0,
      "barrier_damage_done":1209.0
    }
}